Working with text in R
…
Tools for this approach are provided in the [`tidytext`](https://juliasilge.github.io/tidytext/) package.

---

# Tokenizing the Washington speech

```r
text_df <- tibble(speech = text_clean) %>%
  unnest_tokens(sentence, speech, token = "sentences")

text_df
```

```
## # A tibble: 28 x 1
##    sentence                                                                
##    <chr>                                                                   
##  1 i embrace with great satisfaction the opportunity which now presents it…
##  2 the recent accession of the important state of north carolina to the co…
##  3 in resuming your consultations for the general good you cannot but deri…
##  4 still further to realize their expectations and to secure the blessings…
##  5 among the many interesting objects which will engage your attention tha…
##  6 to be prepared for war is one of the most effectual means of preserving…
##  7 a free people ought not only to be armed but disciplined to which end a…
##  8 the proper establishment of the troops which may be deemed indispensibl…
##  9 in the arrangements which may be made respecting it it will be of impor…
## 10 there was reason to hope that the pacific measures adopted with regard …
## # … with 18 more rows
```
…
---

# Split into sentences...

```r
washington_speeches_df %>%
  unnest_tokens(sentence, speech, token = "sentences")
```

```
## # A tibble: 183 x 2
##    speech_name         sentence                                            
##    <chr>               <chr>                                               
##  1 1790_01_08_Washing… i embrace with great satisfaction the opportunity w…
##  2 1790_01_08_Washing… the recent accession of the important state of nort…
##  3 1790_01_08_Washing… in resuming your consultations for the general good…
##  4 1790_01_08_Washing… still further torealize their expectations and to s…
##  5 1790_01_08_Washing… among the many interesting objects which will engag…
##  6 1790_01_08_Washing… to be prepared for war is one of the most effectual…
##  7 1790_01_08_Washing… a free people ought not only to be armed but discip…
##  8 1790_01_08_Washing… the proper establishment of the troops which may be…
##  9 1790_01_08_Washing… in the arrangements which may be made respecting it…
## 10 1790_01_08_Washing… there was reason to hope that the pacific measures …
## # … with 173 more rows
```
…
```r
washington_by_word <- washington_speeches_df %>%
  unnest_tokens(word, speech, token = "words")
```

--

```r
washington_by_word %>%
  count(word, sort = TRUE)
```

```
## # A tibble: 1,560 x 2
##    word      n
##    <chr> <int>
##  1 the     650
##  2 of      445
##  3 to      280
##  4 and     214
##  5 in      135
##  6 a       115
##  7 which   109
##  8 be      101
##  9 that     89
## 10 for      76
## # … with 1,550 more rows
```
…
```r
data(stop_words) # contained in `tidytext`

washington_words <- washington_by_word %>%
  anti_join(stop_words, by = "word")

washington_count <- washington_words %>%
  count(word, sort = TRUE)

washington_count
```

```
## # A tibble: 1,285 x 2
##    word           n
##    <chr>      <int>
##  1 united        28
##  2 public        25
##  3 citizens      17
##  4 government    17
##  5 measures      17
##  6 provision     17
##  7 proper        16
##  8 law           15
##  9 national      13
## 10 country       12
## # … with 1,275 more rows
```
…
```r
stop_words_modified <- stop_words %>%
  filter(word != "states")

washington_words <- washington_by_word %>%
  anti_join(stop_words_modified, by = "word")

washington_count <- washington_words %>%
  count(word, sort = TRUE)

washington_count
```

```
## # A tibble: 1,286 x 2
##    word           n
##    <chr>      <int>
##  1 states        29
##  2 united        28
##  3 public        25
##  4 citizens      17
##  5 government    17
##  6 measures      17
##  7 provision     17
##  8 proper        16
##  9 law           15
## 10 national      13
## # … with 1,276 more rows
```
…
---

# Bigrams

```r
washington_bigrams <- washington_speeches_df %>%
  unnest_tokens(bigram, speech, token = "ngrams", n = 2)

washington_bigrams
```

```
## # A tibble: 6,830 x 2
##    speech_name           bigram            
##    <chr>                 <chr>             
##  1 1790_01_08_Washington i embrace         
##  2 1790_01_08_Washington embrace with      
##  3 1790_01_08_Washington with great        
##  4 1790_01_08_Washington great satisfaction
##  5 1790_01_08_Washington satisfaction the  
##  6 1790_01_08_Washington the opportunity   
##  7 1790_01_08_Washington opportunity which 
##  8 1790_01_08_Washington which now         
##  9 1790_01_08_Washington now presents      
## 10 1790_01_08_Washington presents itself   
## # … with 6,820 more rows
```
…
```r
washington_bigram_counts <- washington_bigrams %>%
  count(word1, word2, sort = TRUE)

washington_bigram_counts
```

```
## # A tibble: 483 x 3
##    word1    word2          n
##    <chr>    <chr>      <int>
##  1 united   states        27
##  2 fellow   citizens       6
##  3 post     office         5
##  4 post     roads          4
##  5 public   debt           4
##  6 national prosperity     3
##  7 3000000  florins        2
##  8 adequate provision      2
##  9 current  service        2
## 10 due      attention      2
## # … with 473 more rows
```
…
